DESCRIPTIVA, INFERENCIA Y REGRESIONES SIMPLES
…
A simple vista es complicado determinar si existe alguna diferencia evidente entre el comportamiento de las ventas de nuestra tabla.

Es cierto, que en Madrid tiene algun outlier superior al de Barcelona, pero en general el grafico representa dispersiones muy parecidas entre si.

Creamos una tabla con las ventas de Barcelona:

Tabla %>%  filter(PROVINCIA=='Barcelona') %>%select(VENTAS) ->VENTAS_BARCELONA
names(VENTAS_BARCELONA) <- 'Ventas_Barcelona'
VENTAS_BARCELONA

## # A tibble: 546 x 1
##    Ventas_Barcelona
##               <dbl>
##  1           11235.
##  2            2819.
##  3             527.
##  4             564.
##  5           30803.
##  6            1010.
##  7            2791.
##  8           28774.
##  9           39061.
## 10            5638.
## # ... with 536 more rows

Creamos una tabla con las ventas de Madrid:

Tabla %>%  filter(PROVINCIA=='Madrid') %>%select(VENTAS) ->VENTAS_MADRID
names(VENTAS_MADRID) <- 'Ventas_Madrid'
VENTAS_MADRID

## # A tibble: 473 x 1
##    Ventas_Madrid
##            <dbl>
##  1         1011.
##  2         3617.
##  3        10199.
##  4         1023.
##  5         9784.
##  6         1313.
##  7         4123.
##  8         6731.
##  9         1735.
## 10         4714.
## # ... with 463 more rows
…
